Amusons-nous avec Rstudio ! - Exercices
…
Etape 2 : Visualiser la base

Pour faciliter la lecture du jeu de données, nous décidons de le transformer en tibble pour avoir une meilleure organisation des informations disponibles.

data_ex <- tibble::as_tibble(data_ex)
data_ex

# A tibble: 31 × 4
   geo_point           nom                         sites_olympiques_par…¹ sports
   <chr>               <chr>                       <chr>                  <chr> 
 1 48.841319, 2.253076 Parc des Princes            "Site olympique"       "Foot…
 2 48.924388, 2.359871 Stade de France             "Site olympique,Site … "Athl…
 3 48.92467, 2.332428  Village olympique           ""                     ""    
 4 48.815115, 2.08208  Château de Versailles       "Site olympique,Site … "Spor…
 5 48.944207, 2.424716 Village des médias          ""                     ""    
 6 48.944643, 2.408258 Terrain des Essences - La … "Site paralympique"    "Para…
 7 48.788162, 1.967776 Colline d'Elancourt         "Site olympique"       "VTT" 
 8 48.866041, 2.312406 Grand Palais                "Site olympique,Site … "Escr…
 9 48.862286, 2.313222 Invalides                   "Site olympique,Site … "Tir …
10 48.937188, 2.420467 Site d'escalade du Bourget  "Site olympique"       "Esca…
# ℹ 21 more rows
# ℹ abbreviated name: ¹​sites_olympiques_paralympiques
…
Etape finale : Inclure les 4 colonnes de sports_modif et tri

Nous incluons les colonnes X1, X2, X3 et X4 induites de l’étape précédente. Ensuite, nous regroupons par nom et nous calculons le nombre de disciplines différentes pour chaque site.

Puis, nous finissons par ranger par ordre décroissant le nombre de disciplines :

data_ex_2<- cbind(data_ex_2, sports_modif)

classement <- data_ex_2|> 
  group_by(nom) |> 
  summarise(nbre_sports = n_distinct((c(X1, X2, X3, X4)))) |> 
  arrange(desc(nbre_sports))
classement

# A tibble: 29 × 2
   nom                                     nbre_sports
   <chr>                                         <int>
 1 Arena Bercy                                       4
 2 Arena Champs de Mars                              4
 3 Arena La Chapelle                                 4
 4 Arena Paris nord                                  4
 5 Grand Palais                                      4
 6 Invalides                                         4
 7 Stade de la Concorde                              4
 8 Stade nautique                                    4
 9 Arena Paris Sud 6 (Porte de Versailles)           3
10 Centre aquatique                                  3
# ℹ 19 more rows
…
Question 8

Quelle discipline aura lieu sur le plus grand nombre de sites ? Quels sont ces sites ?

Pour y répondre, nous allons chercher la discipline qui revient le plus souvent et identifier les sites qui accueillent cette dernière.

Etape 1 : Avoir le nom de chaque disicipline et trier par ordre décroissant

Nous utilisons le même raisonnement que précédemment mais nous faisons appel cette fois-ci à la fonction separate_rows car le logiciel ne va pas remplir la case avec le premier sport lorsque le site a moins de 4 sports. En effet, si nous faisions appel à la fonction str_split, l’occurrence des sports serait biaisée.

data_ex_3 <- data_ex|> separate_rows(sports, sep = ",")
data_ex_3

# A tibble: 70 × 4
   geo_point           nom                         sites_olympiques_par…¹ sports
   <chr>               <chr>                       <chr>                  <chr> 
 1 48.841319, 2.253076 Parc des Princes            Site olympique         Footb…
 2 48.924388, 2.359871 Stade de France             Site olympique,Site p… Athlé…
 3 48.924388, 2.359871 Stade de France             Site olympique,Site p… Para …
 4 48.924388, 2.359871 Stade de France             Site olympique,Site p… Rugby 
 5 48.815115, 2.08208  Château de Versailles       Site olympique,Site p… Sport…
 6 48.815115, 2.08208  Château de Versailles       Site olympique,Site p… Para …
 7 48.815115, 2.08208  Château de Versailles       Site olympique,Site p… Penta…
 8 48.944643, 2.408258 Terrain des Essences - La … Site paralympique      Para …
 9 48.788162, 1.967776 Colline d'Elancourt         Site olympique         VTT   
10 48.866041, 2.312406 Grand Palais                Site olympique,Site p… Escri…
# ℹ 60 more rows
# ℹ abbreviated name: ¹​sites_olympiques_paralympiques
…
Créez un objet intitulé data_medailles_sport_ete contenant le premier élément de list_tables.

La table n’est pas bien formattée.

Supprimez la première colonne, les noms de colonnes et la première ligne. Renommez les colonnes en c(“Discipline”, “Annees”, “Editions”, “Epreuves_2020”, “Or”, “Argent”, “Bronze”, “Total”, “Athletes_medailles”, “Athletes_or”).

Les colonnes Editions, Epreuves_2020, Or, Argent, Bronze, Total seront converties en colonnes d’entiers.

Etape 1 : Extraction de la première liste de la liste

data_medailles_sport_ete <- list_tables[[1]]
data_medailles_sport_ete

# A tibble: 31 × 11
   Discipline   Discipline   Années `Nombre de` `Nombre de` `médailles décernés`
   <chr>        <chr>        <chr>  <chr>       <chr>       <chr>               
 1 "Discipline" Discipline   Années Éditions    Épreuves(e… Or                  
 2 ""           Athlétisme   Depui… 29          48          1028                
 3 ""           Aviron       Depui… 28          14          269                 
 4 ""           Badminton    Depui… 8           5           39                  
 5 ""           Basket-ball  Depui… 20          4           32                  
 6 ""           Boxe         1904,… 26          13          266                 
 7 ""           Canoë-kayak  Depui… 20          16          242                 
 8 ""           Cyclisme(ho… Depui… 29          22          263                 
 9 ""           Équitation   1900,… 26          6           151                 
10 ""           Escrime      Depui… 29          12          223                 
# ℹ 21 more rows
# ℹ 5 more variables: `médailles décernés` <chr>, `médailles décernés` <chr>,
#   `médailles décernés` <chr>,
#   `Athlète(s) avec le plus de médailles (Or-Argent-Bronze)` <chr>,
#   `Athlète(s) avec le plus de médailles d'or` <chr>
…
Etape 1 : Importation

Pour répondre à la question, nous importons tout d’abord le fichier parquet téléchargé qui se trouve dans le dossier data du projet Rstudio intitulé exercices à l’aide la fonction read_parquet qui se trouve dans le package arrow.

tokyo_athletes <- arrow :: read_parquet("C:/Users/Jasmine/Documents/Nantes/cours/SEMESTRE 2/R avancé/my_blog_2/posts/post-with-code/tokyo_athletes.parquet")

Etape finale : Visualiser la base

Pour faciliter la lecture du jeu de données, nous décidons de le transformer en tibble (cf. exercice 1).

tokyo_athletes <- tibble::as_tibble(tokyo_athletes)
tokyo_athletes

# A tibble: 11,085 × 3
   Name              NOC                      Discipline         
   <chr>             <chr>                    <chr>              
 1 AALERUD Katrine   Norway                   Cycling Road       
 2 ABAD Nestor       Spain                    Artistic Gymnastics
 3 ABAGNALE Giovanni Italy                    Rowing             
 4 ABALDE Alberto    Spain                    Basketball         
 5 ABALDE Tamara     Spain                    Basketball         
 6 ABALO Luc         France                   Handball           
 7 ABAROA Cesar      Chile                    Rowing             
 8 ABASS Abobakr     Sudan                    Swimming           
 9 ABBASALI Hamideh  Islamic Republic of Iran Karate             
10 ABBASOV Islam     Azerbaijan               Wrestling          
# ℹ 11,075 more rows
…
Etape 1 : Importation

Pour répondre à la question, nous importons tout d’abord le fichier json téléchargé qui se trouve dans le dossier data du projet Rstudio intitulé exercices à l’aide la fonction read_json qui se trouve dans le package jsonlite.

olympics_athletes<- jsonlite::read_json("C:/Users/Jasmine/Documents/Nantes/cours/SEMESTRE 2/R avancé/my_blog_2/posts/post-with-code/olympics_athletes.json", simplifyVector = TRUE)

Etape finale : Visualiser la base

Pour faciliter la lecture du jeu de données, nous décidons de le transformer en tibble (cf. exercice 1).

olympics_athletes <- tibble::as_tibble(olympics_athletes)
olympics_athletes

# A tibble: 269,731 × 13
      ID Name      Sex     Age Height Weight Team  NOC   Games City  Sport Event
   <int> <chr>     <chr> <int>  <int>  <dbl> <chr> <chr> <chr> <chr> <chr> <chr>
 1     1 A Dijiang M        24    180     80 China CHN   1992… Barc… Bask… Bask…
 2     2 A Lamusi  M        23    170     60 China CHN   2012… Lond… Judo  Judo…
 3     3 Gunnar N… M        24     NA     NA Denm… DEN   1920… Antw… Foot… Foot…
 4     4 Edgar Li… M        34     NA     NA Denm… DEN   1900… Paris Tug-… Tug-…
 5     5 Christin… F        21    185     82 Neth… NED   1988… Calg… Spee… Spee…
 6     5 Christin… F        21    185     82 Neth… NED   1988… Calg… Spee… Spee…
 7     5 Christin… F        25    185     82 Neth… NED   1992… Albe… Spee… Spee…
 8     5 Christin… F        25    185     82 Neth… NED   1992… Albe… Spee… Spee…
 9     5 Christin… F        27    185     82 Neth… NED   1994… Lill… Spee… Spee…
10     5 Christin… F        27    185     82 Neth… NED   1994… Lill… Spee… Spee…
# ℹ 269,721 more rows
# ℹ 1 more variable: Medal <chr>
…
 [1] "ID"     "Name"   "Sex"    "Age"    "Height" "Weight" "Team"   "NOC"   
 [9] "Games"  "City"   "Sport"  "Event"  "Medal" 

Question 7

Importez cette table depuis la base de données en utilisant la fonction dbReadTable.

Convertissez la table en tibble en utilisant la fonction as_tibble.

dbReadTable(con,"olympics_athletes") |> view()

olympics_athletes <- as_tibble(dbReadTable(con,"olympics_athletes"))
olympics_athletes

# A tibble: 269,731 × 13
      ID Name      Sex     Age Height Weight Team  NOC   Games City  Sport Event
   <int> <chr>     <chr> <int>  <int>  <dbl> <chr> <chr> <chr> <chr> <chr> <chr>
 1     1 A Dijiang M        24    180     80 China CHN   1992… Barc… Bask… Bask…
 2     2 A Lamusi  M        23    170     60 China CHN   2012… Lond… Judo  Judo…
 3     3 Gunnar N… M        24     NA     NA Denm… DEN   1920… Antw… Foot… Foot…
 4     4 Edgar Li… M        34     NA     NA Denm… DEN   1900… Paris Tug-… Tug-…
 5     5 Christin… F        21    185     82 Neth… NED   1988… Calg… Spee… Spee…
 6     5 Christin… F        21    185     82 Neth… NED   1988… Calg… Spee… Spee…
 7     5 Christin… F        25    185     82 Neth… NED   1992… Albe… Spee… Spee…
 8     5 Christin… F        25    185     82 Neth… NED   1992… Albe… Spee… Spee…
 9     5 Christin… F        27    185     82 Neth… NED   1994… Lill… Spee… Spee…
10     5 Christin… F        27    185     82 Neth… NED   1994… Lill… Spee… Spee…
# ℹ 269,721 more rows
# ℹ 1 more variable: Medal <chr>

dbDisconnect(con) 

La fermeture de la connexion avec dbDisconnect est nécessaire puisque nous n’allons plus utiliser cette dernière par la suite.

Question 8

Convertissez la colonne Sex en variable catégorielle avec la fonction mutate.

Une variable catégorielle est vue comme un facteur sur le logiciel, c’est-à-dire qu’elle dispose d’un nombre limité de modalités. Ici, la variable Sex n’a que 2 modalités. Par conséquent, la transformer en facteur est cohérent.

olympics_athletes |> mutate(Sex=factor(Sex))

# A tibble: 269,731 × 13
      ID Name      Sex     Age Height Weight Team  NOC   Games City  Sport Event
   <int> <chr>     <fct> <int>  <int>  <dbl> <chr> <chr> <chr> <chr> <chr> <chr>
 1     1 A Dijiang M        24    180     80 China CHN   1992… Barc… Bask… Bask…
 2     2 A Lamusi  M        23    170     60 China CHN   2012… Lond… Judo  Judo…
 3     3 Gunnar N… M        24     NA     NA Denm… DEN   1920… Antw… Foot… Foot…
 4     4 Edgar Li… M        34     NA     NA Denm… DEN   1900… Paris Tug-… Tug-…
 5     5 Christin… F        21    185     82 Neth… NED   1988… Calg… Spee… Spee…
 6     5 Christin… F        21    185     82 Neth… NED   1988… Calg… Spee… Spee…
 7     5 Christin… F        25    185     82 Neth… NED   1992… Albe… Spee… Spee…
 8     5 Christin… F        25    185     82 Neth… NED   1992… Albe… Spee… Spee…
 9     5 Christin… F        27    185     82 Neth… NED   1994… Lill… Spee… Spee…
10     5 Christin… F        27    185     82 Neth… NED   1994… Lill… Spee… Spee…
# ℹ 269,721 more rows
# ℹ 1 more variable: Medal <chr>
…
# A tibble: 1 × 1
  moy_age
    <dbl>
1    25.5

La moyenne d’âge sur l’ensemble des JO d’été est de 25,5 ans.

Etape 2 : Age moyen pour chaque édition

olympics_athletes |> 
  filter(isSummer=="1") |> 
  group_by(Year) |> 
  summarise(moy_age=mean(Age,na.rm = TRUE))

# A tibble: 29 × 2
    Year moy_age
   <int>   <dbl>
 1  1896    23.6
 2  1900    28.9
 3  1904    26.7
 4  1906    27.1
 5  1908    27.0
 6  1912    27.5
 7  1920    29.3
 8  1924    28.1
 9  1928    28.0
10  1932    30.2
# ℹ 19 more rows

Etape 3 : Tri par ordre décroissant de l’âge moyen

olympics_athletes |> 
  filter(isSummer=="1") |> 
  group_by(Year) |> 
  summarise(moy_age=mean(Age,na.rm = TRUE)) |> 
  arrange(desc(moy_age)) 

# A tibble: 29 × 2
    Year moy_age
   <int>   <dbl>
 1  1932    30.2
 2  1920    29.3
 3  1900    28.9
 4  1948    28.8
 5  1924    28.1
 6  1928    28.0
 7  1912    27.5
 8  1936    27.2
 9  1906    27.1
10  1908    27.0
# ℹ 19 more rows

L’édition de 1932 a compté les plus vieux athlètes avec une moyenne d’âge de 30,2 ans.

Etape finale : Tri par ordre croissant de l’âge moyen

olympics_athletes |> 
  filter(isSummer=="1") |> 
  group_by(Year) |> 
  summarise(moy_age=mean(Age,na.rm = TRUE)) |> 
  arrange((moy_age))

# A tibble: 29 × 2
    Year moy_age
   <int>   <dbl>
 1  1896    23.6
 2  1980    23.7
 3  1976    23.9
 4  1984    24.0
 5  1988    24.1
 6  1968    24.3
 7  1972    24.3
 8  1992    24.4
 9  1996    24.9
10  1964    25.1
# ℹ 19 more rows
…
Quelle a été cette discipline au cours de chacune des éditions ?

Calculez le nombre de fois où chaque discipline a été la discipline avec les plus grandes athlètes.

Etape 1 : Tri par ordre décroissant de la taille

Pour répondre à la première question, nous filtrons sur les JO d’été et le sexe féminin puis nous trions par ordre décroissant la taille sur l’ensemble des éditions.

olympics_athletes |> 
  filter(isSummer=="1" & Sex =="F") |> 
  arrange(desc(Height)) |> 
  select(Height,Sport) 

# A tibble: 59,299 × 2
   Height Sport     
    <int> <chr>     
 1    213 Basketball
 2    210 Basketball
 3    210 Basketball
 4    206 Basketball
 5    205 Basketball
 6    205 Basketball
 7    204 Volleyball
 8    204 Basketball
 9    204 Basketball
10    204 Basketball
# ℹ 59,289 more rows
Sur la plupart des éditions, le basketball est la discipline qui a comptabilisé la plus grande taille.

Etape 2 : Tri par ordre décroissant selon les années

Pour répondre à la seconde question, nous réalisons la même manipulation en y ajoutant le regroupement par années comme suit :

olympics_athletes |> 
  filter(isSummer=="1"& Sex =="F") |>
  group_by(Year) |> 
  arrange(desc(Height)) |> 
  select(Height,Sport) 

Adding missing grouping variables: `Year`

# A tibble: 59,299 × 3
# Groups:   Year [28]
    Year Height Sport     
   <int>  <int> <chr>     
 1  2000    213 Basketball
 2  1976    210 Basketball
 3  1980    210 Basketball
 4  2012    206 Basketball
 5  1984    205 Basketball
 6  1984    205 Basketball
 7  2000    204 Volleyball
 8  1984    204 Basketball
 9  1988    204 Basketball
10  1992    204 Basketball
# ℹ 59,289 more rows

Une majorité des éditions a enregistré le basketball comme étant la discipline qui a enregisté la plus grande taille.

Etape finale : Calcul du nombre d’occurrences

Pour répondre à la dernière question, nous filtrons en triant la taille par ordre décroissant et nous demandons au logiciel de compter le nombre de fois où chaque discipline a été la discipline avec les plus grandes athlètes.

olympics_athletes |> 
  filter(isSummer=="1" & Sex =="F") |> 
  arrange(desc(Height)) |> 
  count(Sport, sort = TRUE)

# A tibble: 40 × 2
   Sport          n
   <chr>      <int>
 1 Athletics  11666
 2 Swimming    9850
 3 Gymnastics  9129
 4 Rowing      2193
 5 Fencing     2000
 6 Shooting    1724
 7 Volleyball  1543
 8 Hockey      1459
 9 Handball    1401
10 Cycling     1394
# ℹ 30 more rows
…
